{
  "project_info": {
    "project_number": "712579756146",
    "firebase_url": "https://datenight-195821.firebaseio.com",
    "project_id": "datenight-195821",
    "storage_bucket": "datenight-195821.appspot.com"
  },
  "client": [
    {
      "client_info": {
        "mobilesdk_app_id": "1:712579756146:android:9f8c36f719babe04",
        "android_client_info": {
          "package_name": "com.trs.datenight2"
        }
      },
      "oauth_client": [
        {
          "client_id": "712579756146-aoslvkq8u9g5ue0qpjkpv4snb9fve2dr.apps.googleusercontent.com",
          "client_type": 1,
          "android_info": {
            "package_name": "com.trs.datenight2",
            "certificate_hash": "32d8b564122c32c1b8d1ba6e4098c8d9715df30b"
          }
        },
        {
          "client_id": "712579756146-ohrnpvfl6ink2soe2pd4nrel3stjh7ce.apps.googleusercontent.com",
          "client_type": 3
        }
      ],
      "api_key": [
        {
          "current_key": "AIzaSyCXcc6Bnx90EFrFtL2ipBkmq1ngVDTd0NA"
        }
      ],
      "services": {
        "analytics_service": {
          "status": 1
        },
        "appinvite_service": {
          "status": 2,
          "other_platform_oauth_client": [
            {
              "client_id": "712579756146-ohrnpvfl6ink2soe2pd4nrel3stjh7ce.apps.googleusercontent.com",
              "client_type": 3
            },
            {
              "client_id": "712579756146-7ccq6eg08iupapuoasssq5m0532tntth.apps.googleusercontent.com",
              "client_type": 2,
              "ios_info": {
                "bundle_id": "com.jagbodo.datenight"
              }
            }
          ]
        },
        "ads_service": {
          "status": 2
        }
      }
    }
  ],
  "configuration_version": "1"
}